---
http_interactions:
- request:
    method: get
    uri: http://mhs.fluxx.dev:3000/api/rest/v1/form
    body:
      encoding: US-ASCII
      string: ''
    headers:
      Accept:
      - "*/*; q=0.5, application/xml"
      Accept-Encoding:
      - gzip, deflate
      Authorization:
      - Bearer 3ebe66ed7e358bc0df884596a4b9795ad223c8cea1ed06bcf27f88662bf3f32a
      User-Agent:
      - Ruby
  response:
    status:
      code: 200
      message: OK
    headers:
      Date:
      - Sun, 20 Dec 2015 01:02:44 GMT
      Status:
      - 200 OK
      Connection:
      - close
      Content-Type:
      - application/json; charset=utf-8
      X-Ua-Compatible:
      - IE=Edge
      Etag:
      - '"bee61b8be9ffbfe7bdcd3cb068756155"'
      Cache-Control:
      - max-age=0, private, must-revalidate
      X-Request-Id:
      - 64bd904bce57eb76470396a07546fd30
      X-Runtime:
      - '0.139061'
    body:
      encoding: UTF-8
      string: '{"records":{"form":[{"id":1,"created_at":"2012-04-08T16:57:47Z","updated_at":"2013-07-26T23:34:48Z"},{"id":2,"created_at":"2012-04-08T16:57:47Z","updated_at":"2012-04-08T16:57:47Z"},{"id":3,"created_at":"2012-04-08T16:57:47Z","updated_at":"2012-04-08T16:57:47Z"},{"id":4,"created_at":"2012-04-08T16:57:47Z","updated_at":"2012-04-08T16:57:47Z"},{"id":5,"created_at":"2012-04-08T16:57:47Z","updated_at":"2012-04-08T16:57:47Z"},{"id":6,"created_at":"2012-04-08T16:57:47Z","updated_at":"2012-04-08T16:57:47Z"},{"id":7,"created_at":"2012-04-08T16:57:47Z","updated_at":"2012-04-08T16:57:47Z"},{"id":8,"created_at":"2012-04-08T16:57:47Z","updated_at":"2012-04-08T16:57:47Z"},{"id":9,"created_at":"2012-04-08T16:57:47Z","updated_at":"2012-04-08T16:57:47Z"},{"id":10,"created_at":"2012-04-08T16:57:47Z","updated_at":"2012-04-08T16:57:47Z"},{"id":11,"created_at":"2012-04-08T16:57:48Z","updated_at":"2012-04-08T16:57:48Z"},{"id":12,"created_at":"2012-04-08T16:57:48Z","updated_at":"2012-04-08T16:57:48Z"},{"id":13,"created_at":"2012-04-08T16:57:48Z","updated_at":"2012-04-08T16:57:48Z"},{"id":14,"created_at":"2012-04-08T16:57:48Z","updated_at":"2012-04-08T16:57:48Z"},{"id":15,"created_at":"2012-04-08T16:57:48Z","updated_at":"2013-07-29T15:26:48Z"},{"id":16,"created_at":"2012-04-08T16:57:48Z","updated_at":"2012-04-08T16:57:48Z"},{"id":17,"created_at":"2012-04-08T16:57:48Z","updated_at":"2013-07-29T15:26:55Z"},{"id":18,"created_at":"2012-04-08T16:57:48Z","updated_at":"2012-04-08T16:57:48Z"},{"id":19,"created_at":"2012-04-08T16:57:48Z","updated_at":"2012-04-08T16:57:48Z"},{"id":20,"created_at":"2012-04-08T16:57:48Z","updated_at":"2012-04-08T16:57:48Z"},{"id":27,"created_at":"2012-04-08T16:57:49Z","updated_at":"2013-08-20T17:46:58Z"},{"id":28,"created_at":"2012-04-08T16:57:49Z","updated_at":"2013-06-22T18:53:29Z"},{"id":29,"created_at":"2012-04-08T16:57:49Z","updated_at":"2013-06-22T18:53:35Z"},{"id":30,"created_at":"2012-04-08T16:57:49Z","updated_at":"2013-06-22T18:53:42Z"},{"id":31,"created_at":"2012-04-08T16:57:49Z","updated_at":"2013-06-22T18:53:48Z"}]},"total_pages":10,"total_entries":229,"current_page":1,"per_page":25}'
    http_version: 
  recorded_at: Sun, 20 Dec 2015 01:02:44 GMT
recorded_with: VCR 3.0.0
